{
    "compilerOptions": {
      "target": "es2019", 
      "lib": ["es2019", "dom", "webworker"],
      "esModuleInterop": true, 
      "forceConsistentCasingInFileNames": true,
      "strict": true, 
      "skipLibCheck": true,
      
      "jsx": "react", 
      "module": "ESNext",  
      "declaration": true,
      "declarationDir": "types",
      "sourceMap": true,
      "outDir": "dist",
      "moduleResolution": "node",
      "allowSyntheticDefaultImports": true,
      "emitDeclarationOnly": true
    }
}